{
    "/api": {
        "target": "http://localhost:3000",
        "secure": false,
        "changeOrigin": true,
        "pathRewrite": {
            "^/api": ""
        },
        "logLevel": "debug"
    }
}
